---
http_interactions:
- request:
    method: get
    uri: https://api.test.datacite.org/clients?ids=cdl.cdl,datacite.datacite,dryad.dryad
    body:
      encoding: US-ASCII
      string: ''
    headers:
      User-Agent:
      - Mozilla/5.0 (compatible; Maremma/4.1.1; +https://github.com/datacite/maremma)
      Content-Type:
      - application/vnd.api+json
      Accept:
      - text/html,application/json,application/xml;q=0.9, text/plain;q=0.8,image/png,*/*;q=0.5
  response:
    status:
      code: 200
      message: OK
    headers:
      Date:
      - Thu, 06 Sep 2018 20:26:44 GMT
      Content-Type:
      - application/json; charset=utf-8
      Connection:
      - keep-alive
      Status:
      - 200 OK
      X-Anonymous-Consumer:
      - 'true'
      Cache-Control:
      - max-age=0, private, must-revalidate
      Vary:
      - Accept-Encoding, Origin
      X-Request-Id:
      - fa994df2-07e9-478b-86d3-c77f00f1d3f1
      Etag:
      - W/"0bec12e0a6e43d61e55f8ce2fa22ea87"
      X-Runtime:
      - '0.088163'
      X-Powered-By:
      - Phusion Passenger 5.3.4
      Server:
      - nginx/1.14.0 + Phusion Passenger 5.3.4
    body:
      encoding: ASCII-8BIT
      string: '{"data":[{"id":"cdl.cdl","type":"clients","attributes":{"name":"CDL","symbol":"CDL.CDL","year":2011,"contact-name":"EZID
        Support Desk","contact-email":"ezid@ucop.edu","domains":"*","url":null,"created":"2011-03-02T19:09:27.000Z","updated":"2018-08-26T01:30:24.000Z","is-active":true,"has-password":false},"relationships":{"provider":{"data":{"id":"cdl","type":"providers"}},"prefixes":{"data":[{"id":"10.5060","type":"prefixes"},{"id":"10.5061","type":"prefixes"},{"id":"10.5072","type":"prefixes"}]}}},{"id":"datacite.datacite","type":"clients","attributes":{"name":"DataCite","symbol":"DATACITE.DATACITE","year":2011,"contact-name":"Martin
        Fenner","contact-email":"support@datacite.org","domains":"datacite.org","url":null,"created":"2011-12-07T13:43:39.000Z","updated":"2018-08-26T01:30:27.000Z","is-active":true,"has-password":true},"relationships":{"provider":{"data":{"id":"datacite","type":"providers"}},"prefixes":{"data":[{"id":"10.5438","type":"prefixes"},{"id":"10.5072","type":"prefixes"},{"id":"10.14454","type":"prefixes"},{"id":"10.23725","type":"prefixes"}]}}},{"id":"dryad.dryad","type":"clients","attributes":{"name":"DRYAD","symbol":"DRYAD.DRYAD","year":2018,"contact-name":"Dryad
        Administrator","contact-email":"admin@datadryad.org","domains":"*","url":null,"created":"2018-04-24T17:32:32.000Z","updated":"2018-08-26T01:31:12.000Z","is-active":true,"has-password":true},"relationships":{"provider":{"data":{"id":"dryad","type":"providers"}},"repository":{"data":{"id":"r3d100000044","type":"repositories"}},"prefixes":{"data":[{"id":"10.5072","type":"prefixes"}]}}}],"included":[{"id":"cdl","type":"providers","attributes":{"name":"California
        Digital Library","symbol":"CDL","website":null,"contact-name":"Greg Janee","contact-email":"gjanee@ucop.edu","phone":null,"description":null,"region":null,"country":null,"logo-url":null,"institution-type":null,"is-active":true,"has-password":true,"joined":null,"created":"2010-01-01T00:00:00.000Z","updated":"2018-08-26T01:25:40.000Z"},"relationships":{"prefixes":{"data":[{"id":"10.5060","type":"prefixes"},{"id":"10.5061","type":"prefixes"},{"id":"10.5062","type":"prefixes"},{"id":"10.5063","type":"prefixes"},{"id":"10.5064","type":"prefixes"},{"id":"10.5065","type":"prefixes"},{"id":"10.5066","type":"prefixes"},{"id":"10.5067","type":"prefixes"},{"id":"10.5068","type":"prefixes"},{"id":"10.5069","type":"prefixes"},{"id":"10.5070","type":"prefixes"},{"id":"10.5072","type":"prefixes"},{"id":"10.6067","type":"prefixes"},{"id":"10.6068","type":"prefixes"},{"id":"10.6069","type":"prefixes"},{"id":"10.6070","type":"prefixes"},{"id":"10.6071","type":"prefixes"},{"id":"10.6072","type":"prefixes"},{"id":"10.6073","type":"prefixes"},{"id":"10.6074","type":"prefixes"},{"id":"10.6075","type":"prefixes"},{"id":"10.6076","type":"prefixes"},{"id":"10.6077","type":"prefixes"},{"id":"10.6078","type":"prefixes"},{"id":"10.6079","type":"prefixes"},{"id":"10.6080","type":"prefixes"},{"id":"10.6081","type":"prefixes"},{"id":"10.6082","type":"prefixes"},{"id":"10.6083","type":"prefixes"},{"id":"10.6084","type":"prefixes"},{"id":"10.6085","type":"prefixes"},{"id":"10.6086","type":"prefixes"},{"id":"10.3334","type":"prefixes"},{"id":"10.7264","type":"prefixes"},{"id":"10.7265","type":"prefixes"},{"id":"10.7266","type":"prefixes"},{"id":"10.7267","type":"prefixes"},{"id":"10.7268","type":"prefixes"},{"id":"10.7269","type":"prefixes"},{"id":"10.7270","type":"prefixes"},{"id":"10.7271","type":"prefixes"},{"id":"10.7272","type":"prefixes"},{"id":"10.7273","type":"prefixes"},{"id":"10.7274","type":"prefixes"},{"id":"10.7275","type":"prefixes"},{"id":"10.7276","type":"prefixes"},{"id":"10.7277","type":"prefixes"},{"id":"10.7278","type":"prefixes"},{"id":"10.7279","type":"prefixes"},{"id":"10.7280","type":"prefixes"},{"id":"10.7281","type":"prefixes"},{"id":"10.7282","type":"prefixes"},{"id":"10.7283","type":"prefixes"},{"id":"10.7284","type":"prefixes"},{"id":"10.7285","type":"prefixes"},{"id":"10.7286","type":"prefixes"},{"id":"10.7287","type":"prefixes"},{"id":"10.7288","type":"prefixes"},{"id":"10.7289","type":"prefixes"},{"id":"10.7290","type":"prefixes"},{"id":"10.7291","type":"prefixes"},{"id":"10.7292","type":"prefixes"},{"id":"10.7293","type":"prefixes"},{"id":"10.7294","type":"prefixes"},{"id":"10.7295","type":"prefixes"},{"id":"10.7296","type":"prefixes"},{"id":"10.7297","type":"prefixes"},{"id":"10.7298","type":"prefixes"},{"id":"10.7299","type":"prefixes"},{"id":"10.7300","type":"prefixes"},{"id":"10.7301","type":"prefixes"},{"id":"10.7302","type":"prefixes"},{"id":"10.7303","type":"prefixes"},{"id":"10.4246","type":"prefixes"},{"id":"10.7907","type":"prefixes"},{"id":"10.7908","type":"prefixes"},{"id":"10.7909","type":"prefixes"},{"id":"10.7910","type":"prefixes"},{"id":"10.7911","type":"prefixes"},{"id":"10.7912","type":"prefixes"},{"id":"10.7913","type":"prefixes"},{"id":"10.7914","type":"prefixes"},{"id":"10.7915","type":"prefixes"},{"id":"10.7916","type":"prefixes"},{"id":"10.7917","type":"prefixes"},{"id":"10.7918","type":"prefixes"},{"id":"10.7919","type":"prefixes"},{"id":"10.7920","type":"prefixes"},{"id":"10.7921","type":"prefixes"},{"id":"10.7922","type":"prefixes"},{"id":"10.7923","type":"prefixes"},{"id":"10.7924","type":"prefixes"},{"id":"10.7925","type":"prefixes"},{"id":"10.7926","type":"prefixes"},{"id":"10.7927","type":"prefixes"},{"id":"10.7928","type":"prefixes"},{"id":"10.7929","type":"prefixes"},{"id":"10.7930","type":"prefixes"},{"id":"10.7931","type":"prefixes"},{"id":"10.7932","type":"prefixes"},{"id":"10.7933","type":"prefixes"},{"id":"10.7934","type":"prefixes"},{"id":"10.7935","type":"prefixes"},{"id":"10.7936","type":"prefixes"},{"id":"10.7937","type":"prefixes"},{"id":"10.7938","type":"prefixes"},{"id":"10.7939","type":"prefixes"},{"id":"10.7940","type":"prefixes"},{"id":"10.7941","type":"prefixes"},{"id":"10.7942","type":"prefixes"},{"id":"10.7943","type":"prefixes"},{"id":"10.7944","type":"prefixes"},{"id":"10.7945","type":"prefixes"},{"id":"10.7946","type":"prefixes"},{"id":"10.13022","type":"prefixes"},{"id":"10.13021","type":"prefixes"},{"id":"10.13026","type":"prefixes"},{"id":"10.13025","type":"prefixes"},{"id":"10.13024","type":"prefixes"},{"id":"10.13023","type":"prefixes"},{"id":"10.13028","type":"prefixes"},{"id":"10.13027","type":"prefixes"},{"id":"10.13018","type":"prefixes"},{"id":"10.15147","type":"prefixes"},{"id":"10.15146","type":"prefixes"},{"id":"10.15142","type":"prefixes"},{"id":"10.15143","type":"prefixes"},{"id":"10.15144","type":"prefixes"},{"id":"10.15145","type":"prefixes"},{"id":"10.15140","type":"prefixes"},{"id":"10.15141","type":"prefixes"},{"id":"10.15139","type":"prefixes"},{"id":"10.15138","type":"prefixes"},{"id":"10.1184","type":"prefixes"},{"id":"10.15788","type":"prefixes"},{"id":"10.15787","type":"prefixes"},{"id":"10.15786","type":"prefixes"},{"id":"10.15785","type":"prefixes"},{"id":"10.15784","type":"prefixes"},{"id":"10.15779","type":"prefixes"},{"id":"10.15780","type":"prefixes"},{"id":"10.15781","type":"prefixes"},{"id":"10.15782","type":"prefixes"},{"id":"10.15783","type":"prefixes"},{"id":"10.17612","type":"prefixes"},{"id":"10.17613","type":"prefixes"},{"id":"10.17610","type":"prefixes"},{"id":"10.17611","type":"prefixes"},{"id":"10.17616","type":"prefixes"},{"id":"10.17614","type":"prefixes"},{"id":"10.17615","type":"prefixes"},{"id":"10.17602","type":"prefixes"},{"id":"10.17603","type":"prefixes"},{"id":"10.17604","type":"prefixes"},{"id":"10.17605","type":"prefixes"},{"id":"10.17606","type":"prefixes"},{"id":"10.17607","type":"prefixes"},{"id":"10.17608","type":"prefixes"},{"id":"10.17609","type":"prefixes"},{"id":"10.17909","type":"prefixes"},{"id":"10.17908","type":"prefixes"},{"id":"10.17916","type":"prefixes"},{"id":"10.17915","type":"prefixes"},{"id":"10.17918","type":"prefixes"},{"id":"10.17917","type":"prefixes"},{"id":"10.17919","type":"prefixes"},{"id":"10.17910","type":"prefixes"},{"id":"10.17912","type":"prefixes"},{"id":"10.17911","type":"prefixes"},{"id":"10.17914","type":"prefixes"},{"id":"10.17913","type":"prefixes"},{"id":"10.17920","type":"prefixes"},{"id":"10.18130","type":"prefixes"},{"id":"10.18131","type":"prefixes"},{"id":"10.18128","type":"prefixes"},{"id":"10.18127","type":"prefixes"},{"id":"10.18129","type":"prefixes"},{"id":"10.18125","type":"prefixes"},{"id":"10.18126","type":"prefixes"},{"id":"10.18123","type":"prefixes"},{"id":"10.18124","type":"prefixes"},{"id":"10.18121","type":"prefixes"},{"id":"10.18122","type":"prefixes"},{"id":"10.18120","type":"prefixes"},{"id":"10.18119","type":"prefixes"},{"id":"10.18118","type":"prefixes"},{"id":"10.18117","type":"prefixes"},{"id":"10.18116","type":"prefixes"},{"id":"10.18115","type":"prefixes"},{"id":"10.18114","type":"prefixes"},{"id":"10.18113","type":"prefixes"},{"id":"10.18112","type":"prefixes"},{"id":"10.18433","type":"prefixes"},{"id":"10.18434","type":"prefixes"},{"id":"10.18431","type":"prefixes"},{"id":"10.18432","type":"prefixes"},{"id":"10.18430","type":"prefixes"},{"id":"10.18435","type":"prefixes"},{"id":"10.18436","type":"prefixes"},{"id":"10.18437","type":"prefixes"},{"id":"10.18438","type":"prefixes"},{"id":"10.18439","type":"prefixes"},{"id":"10.18737","type":"prefixes"},{"id":"10.18736","type":"prefixes"},{"id":"10.18739","type":"prefixes"},{"id":"10.18738","type":"prefixes"},{"id":"10.18733","type":"prefixes"},{"id":"10.18732","type":"prefixes"},{"id":"10.18735","type":"prefixes"},{"id":"10.18734","type":"prefixes"},{"id":"10.18740","type":"prefixes"},{"id":"10.18741","type":"prefixes"},{"id":"10.20360","type":"prefixes"},{"id":"10.20361","type":"prefixes"},{"id":"10.20353","type":"prefixes"},{"id":"10.20354","type":"prefixes"},{"id":"10.20355","type":"prefixes"},{"id":"10.20356","type":"prefixes"},{"id":"10.20352","type":"prefixes"},{"id":"10.20357","type":"prefixes"},{"id":"10.20358","type":"prefixes"},{"id":"10.20359","type":"prefixes"},{"id":"10.21228","type":"prefixes"},{"id":"10.21229","type":"prefixes"},{"id":"10.21226","type":"prefixes"},{"id":"10.21227","type":"prefixes"},{"id":"10.21224","type":"prefixes"},{"id":"10.21225","type":"prefixes"},{"id":"10.21222","type":"prefixes"},{"id":"10.21223","type":"prefixes"},{"id":"10.21220","type":"prefixes"},{"id":"10.21221","type":"prefixes"},{"id":"10.21237","type":"prefixes"},{"id":"10.21238","type":"prefixes"},{"id":"10.21239","type":"prefixes"},{"id":"10.21233","type":"prefixes"},{"id":"10.21234","type":"prefixes"},{"id":"10.21235","type":"prefixes"},{"id":"10.21236","type":"prefixes"},{"id":"10.21230","type":"prefixes"},{"id":"10.21231","type":"prefixes"},{"id":"10.21232","type":"prefixes"},{"id":"10.21430","type":"prefixes"},{"id":"10.21433","type":"prefixes"},{"id":"10.21431","type":"prefixes"},{"id":"10.21432","type":"prefixes"},{"id":"10.21420","type":"prefixes"},{"id":"10.21421","type":"prefixes"},{"id":"10.21422","type":"prefixes"},{"id":"10.21423","type":"prefixes"},{"id":"10.21424","type":"prefixes"},{"id":"10.21425","type":"prefixes"},{"id":"10.21426","type":"prefixes"},{"id":"10.21427","type":"prefixes"},{"id":"10.21428","type":"prefixes"},{"id":"10.21429","type":"prefixes"},{"id":"10.21419","type":"prefixes"},{"id":"10.21417","type":"prefixes"},{"id":"10.21418","type":"prefixes"},{"id":"10.21415","type":"prefixes"},{"id":"10.21416","type":"prefixes"},{"id":"10.21414","type":"prefixes"},{"id":"10.21970","type":"prefixes"},{"id":"10.21971","type":"prefixes"},{"id":"10.21972","type":"prefixes"},{"id":"10.21973","type":"prefixes"},{"id":"10.21974","type":"prefixes"},{"id":"10.21975","type":"prefixes"},{"id":"10.21976","type":"prefixes"},{"id":"10.21977","type":"prefixes"},{"id":"10.21978","type":"prefixes"},{"id":"10.21979","type":"prefixes"},{"id":"10.21969","type":"prefixes"},{"id":"10.21968","type":"prefixes"},{"id":"10.21992","type":"prefixes"},{"id":"10.21990","type":"prefixes"},{"id":"10.21991","type":"prefixes"},{"id":"10.21983","type":"prefixes"},{"id":"10.21984","type":"prefixes"},{"id":"10.21981","type":"prefixes"},{"id":"10.21982","type":"prefixes"},{"id":"10.21980","type":"prefixes"},{"id":"10.21989","type":"prefixes"},{"id":"10.21987","type":"prefixes"},{"id":"10.21988","type":"prefixes"},{"id":"10.21985","type":"prefixes"},{"id":"10.21986","type":"prefixes"},{"id":"10.5195","type":"prefixes"}]}}},{"id":"datacite","type":"providers","attributes":{"name":"DataCite","symbol":"DATACITE","website":null,"contact-name":"DataCite
        Support","contact-email":"support@datacite.org","phone":null,"description":null,"region":null,"country":null,"logo-url":null,"institution-type":null,"is-active":true,"has-password":true,"joined":null,"created":"2011-12-07T13:41:07.000Z","updated":"2018-08-26T01:25:40.000Z"},"relationships":{"prefixes":{"data":[{"id":"10.5438","type":"prefixes"},{"id":"10.5072","type":"prefixes"},{"id":"10.14454","type":"prefixes"},{"id":"10.0138","type":"prefixes"},{"id":"10.15497","type":"prefixes"},{"id":"10.0158","type":"prefixes"},{"id":"10.0159","type":"prefixes"},{"id":"10.18130","type":"prefixes"},{"id":"10.23725","type":"prefixes"},{"id":"10.24367","type":"prefixes"},{"id":"10.24366","type":"prefixes"},{"id":"10.24365","type":"prefixes"},{"id":"10.24364","type":"prefixes"},{"id":"10.24409","type":"prefixes"},{"id":"10.24360","type":"prefixes"},{"id":"10.24361","type":"prefixes"},{"id":"10.24408","type":"prefixes"},{"id":"10.24362","type":"prefixes"},{"id":"10.24407","type":"prefixes"},{"id":"10.24363","type":"prefixes"},{"id":"10.24354","type":"prefixes"},{"id":"10.24356","type":"prefixes"},{"id":"10.24355","type":"prefixes"},{"id":"10.24358","type":"prefixes"},{"id":"10.24357","type":"prefixes"},{"id":"10.24359","type":"prefixes"},{"id":"10.24411","type":"prefixes"},{"id":"10.24410","type":"prefixes"},{"id":"10.24415","type":"prefixes"},{"id":"10.24414","type":"prefixes"},{"id":"10.24413","type":"prefixes"},{"id":"10.24412","type":"prefixes"},{"id":"10.24419","type":"prefixes"},{"id":"10.24418","type":"prefixes"},{"id":"10.24417","type":"prefixes"},{"id":"10.24416","type":"prefixes"},{"id":"10.24420","type":"prefixes"},{"id":"10.24422","type":"prefixes"},{"id":"10.24421","type":"prefixes"},{"id":"10.24424","type":"prefixes"},{"id":"10.24423","type":"prefixes"},{"id":"10.24426","type":"prefixes"},{"id":"10.24425","type":"prefixes"},{"id":"10.24428","type":"prefixes"},{"id":"10.24427","type":"prefixes"},{"id":"10.24429","type":"prefixes"},{"id":"10.24432","type":"prefixes"},{"id":"10.24433","type":"prefixes"},{"id":"10.24430","type":"prefixes"},{"id":"10.24431","type":"prefixes"},{"id":"10.0310","type":"prefixes"},{"id":"10.0311","type":"prefixes"},{"id":"10.0312","type":"prefixes"},{"id":"10.0330","type":"prefixes"},{"id":"10.0307","type":"prefixes"},{"id":"10.0308","type":"prefixes"},{"id":"10.0309","type":"prefixes"},{"id":"10.0320","type":"prefixes"},{"id":"10.0321","type":"prefixes"},{"id":"10.0322","type":"prefixes"},{"id":"10.70000","type":"prefixes"},{"id":"10.70002","type":"prefixes"},{"id":"10.70001","type":"prefixes"},{"id":"10.70004","type":"prefixes"},{"id":"10.70003","type":"prefixes"},{"id":"10.70005","type":"prefixes"},{"id":"10.70006","type":"prefixes"},{"id":"10.70007","type":"prefixes"},{"id":"10.70008","type":"prefixes"},{"id":"10.70009","type":"prefixes"},{"id":"10.70010","type":"prefixes"},{"id":"10.70011","type":"prefixes"},{"id":"10.70048","type":"prefixes"}]}}},{"id":"dryad","type":"providers","attributes":{"name":"Dryad","symbol":"DRYAD","website":"https://datadryad.org","contact-name":"Elizabeth
        Hull","contact-email":"director@datadryad.org","phone":null,"description":null,"region":null,"country":null,"logo-url":null,"institution-type":null,"is-active":true,"has-password":true,"joined":null,"created":"2018-04-11T18:18:05.000Z","updated":"2018-08-26T01:25:42.000Z"},"relationships":{"prefixes":{"data":[{"id":"10.5072","type":"prefixes"}]}}},{"id":"r3d100000044","type":"repositories","attributes":{"name":"DRYAD","additional-name":null,"description":"DataDryad.org
        is a curated general-purpose repository that makes the data underlying scientific
        publications discoverable, freely reusable, and citable.\nDryad is an international
        repository of data underlying peer-reviewed scientific and medical literature,
        particularly data for which no specialized repository exists. The content
        is considered to be integral to the published research. All material in Dryad
        is associated with a scholarly publication","repository-url":"https://datadryad.org//","repository-contact":"https://datadryad.org//feedback","subject":[{"id":1,"name":"Humanities
        and Social Sciences"},{"id":2,"name":"Life Sciences"},{"id":3,"name":"Natural
        Sciences"},{"id":12,"name":"Social and Behavioural Sciences"},{"id":21,"name":"Biology"},{"id":22,"name":"Medicine"},{"id":23,"name":"Agriculture,
        Forestry, Horticulture and Veterinary Medicine"},{"id":34,"name":"Geosciences
        (including Geography)"},{"id":201,"name":"Basic Biological and Medical Research"},{"id":202,"name":"Plant
        Sciences"},{"id":203,"name":"Zoology"},{"id":204,"name":"Microbiology, Virology
        and Immunology"},{"id":207,"name":"Agriculture, Forestry, Horticulture and
        Veterinary Medicine"},{"id":314,"name":"Geology and Palaeontology"},{"id":20105,"name":"General
        Genetics"},{"id":20107,"name":"Bioinformatics and Theoretical Biology"},{"id":20202,"name":"Plant
        Ecology and Ecosystem Analysis"},{"id":20302,"name":"Evolution, Anthropology"},{"id":20305,"name":"Biochemistry
        and Animal Physiology"},{"id":20402,"name":"Microbial Ecology and Applied
        Microbiology"},{"id":20404,"name":"Virology"}],"repository-software":"DSpace","created":"2013-02-06T00:00:00Z","updated":"2018-04-03T00:00:00Z"},"relationships":{}}],"meta":{"total":3,"total-pages":1,"page":1,"years":[{"id":"2011","title":"2011","count":2},{"id":"2018","title":"2018","count":1}],"providers":[{"id":"cdl","title":"California
        Digital Library","count":1},{"id":"datacite","title":"DataCite","count":1},{"id":"dryad","title":"Dryad","count":1}]},"links":{"self":"https://api.test.datacite.org/clients?ids=cdl.cdl%2Cdatacite.datacite%2Cdryad.dryad","next":"https://api.test.datacite.org/clients?page%5Bnumber%5D=2&page%5Bsize%5D=25"}}'
    http_version: 
  recorded_at: Thu, 06 Sep 2018 20:26:44 GMT
recorded_with: VCR 3.0.3
